…
```
## The following objects are masked from 'package:base':
## 
##     intersect, setdiff, setequal, union
```

```r
icfes201502 <- tbl_df(icfes201502)
icfes201502
```

```
## # A tibble: 12,162 × 24
##    CODINST                                                                 NOMBREINSTITUCION CODIGOMUNICIPIO
##      <int>                                                                            <fctr>           <int>
## 1   142133                         I.E. INTERNADO SAN RAFAEL DEL CARAPARANA - SEDE PRINCIPAL           91263
## 2    87445                      I.E. COLEGIO INDIGENA CASA DEL CONOCIMIENTO - SEDE PRINCIPAL           91405
## 3   117127                                 I.E. INTERNADO INDIGENA SAN JOSÉ - SEDE PRINCIPAL           91407
## 4    19109 I.E. ESCUELA NORMAL SUPERIOR MARCELIANO EDUARDO CANYES SANTACANA - SEDE PRINCIPAL           91001
## 5    38919                                   I.E. INEM JOSE EUSTASIO RIVERA - SEDE PRINCIPAL           91001
## 6    65482                                     I.E. INDIGENA SAN JUAN BOSCO - SEDE PRINCIPAL           91001
## 7    65490                                                    COL FEMENINO MARIA AUXILIADORA           91001
## 8    87429                                                                    COL CRISTO REY           91001
## 9    93229           I.E. COLEGIO TECNICO AGROPECUARIO JOSE CELESTINO MUTIS - SEDE PRINCIPAL           91001
## 10  117358                                    I.E. SAGRADO CORAZON DE JESUS - SEDE PRINCIPAL           91001
## # ... with 12,152 more rows, and 21 more variables: NOMBREMUNICIPIO <fctr>, DEPARTAMENTO <fctr>,
## #   CALENDARIO <fctr>, NATURALEZA <fctr>, JORNADA <fctr>, EVALUADOS <int>, PROMLECTURACRITICA <dbl>,
## #   PROMMATEMATICA <dbl>, PROMSOCIALESYCIUDADANAS <dbl>, PROMCIENCIASNATURALES <dbl>, PROMINGLES <dbl>,
## #   PROMRAZONAMIENTOCUANTITA <dbl>, PROMCOMPETENCIASCIUDADAN <dbl>, DESVLECTURACRITICA <dbl>,
## #   DESVMATEMATICA <dbl>, DESVSOCIALESYCIUDADANAS <dbl>, DESVCIENCIASNATURALES <dbl>, DESVINGLES <dbl>,
## #   DESVRAZONAMIENTOCUANTITA <dbl>, DESVCOMPETENCIASCIUDADAN <dbl>, PERIODO <int>
```

## Filtrado de una base de datos

```r
filter(icfes201502, DEPARTAMENTO == "ANTIOQUIA", NOMBREMUNICIPIO == "MEDELLIN")
```

```
## # A tibble: 419 × 24
##    CODINST                  NOMBREINSTITUCION CODIGOMUNICIPIO NOMBREMUNICIPIO DEPARTAMENTO CALENDARIO
##      <int>                             <fctr>           <int>          <fctr>       <fctr>     <fctr>
## 1       18              COL ATENEO HORIZONTES            5001        MEDELLIN    ANTIOQUIA          A
## 2       59                     INST EDUC CEFA            5001        MEDELLIN    ANTIOQUIA          A
## 3       75 INST EDUC SANTOS ANGELES CUSTODIOS            5001        MEDELLIN    ANTIOQUIA          A
## 4       83              COL BARBARA MICARELLI            5001        MEDELLIN    ANTIOQUIA          A
## 5       91                    COL BETHLEMITAS            5001        MEDELLIN    ANTIOQUIA          A
## 6      125              COL CALASANZ FEMENINO            5001        MEDELLIN    ANTIOQUIA          A
## 7      141                       COL CALASANZ            5001        MEDELLIN    ANTIOQUIA          A
## 8      174                    COL CORAZONISTA            5001        MEDELLIN    ANTIOQUIA          A
## 9      190        COL DE LA COMPANIA DE MARIA            5001        MEDELLIN    ANTIOQUIA          A
## 10     208  COL DE LA PRESENTACION - MEDELLIN            5001        MEDELLIN    ANTIOQUIA          A
## # ... with 409 more rows, and 18 more variables: NATURALEZA <fctr>, JORNADA <fctr>, EVALUADOS <int>,
## #   PROMLECTURACRITICA <dbl>, PROMMATEMATICA <dbl>, PROMSOCIALESYCIUDADANAS <dbl>,
## #   PROMCIENCIASNATURALES <dbl>, PROMINGLES <dbl>, PROMRAZONAMIENTOCUANTITA <dbl>,
## #   PROMCOMPETENCIASCIUDADAN <dbl>, DESVLECTURACRITICA <dbl>, DESVMATEMATICA <dbl>,
## #   DESVSOCIALESYCIUDADANAS <dbl>, DESVCIENCIASNATURALES <dbl>, DESVINGLES <dbl>,
## #   DESVRAZONAMIENTOCUANTITA <dbl>, DESVCOMPETENCIASCIUDADAN <dbl>, PERIODO <int>
```

## Selección de posiciones específicas de una base de datos

```r
slice(icfes201502, 1000:1050)
```

```
## # A tibble: 51 × 24
##    CODINST                                                    NOMBREINSTITUCION CODIGOMUNICIPIO
##      <int>                                                               <fctr>           <int>
## 1   162834                      I.E. CIUDADELA NUEVO OCCIDENTE - SEDE PRINCIPAL            5001
## 2   163253                         ESC BARRIO SAN NICOLAS-EN ADMINISTRACION(AC)            5001
## 3   163782       INST EDUC PBRO ANTONIO JOSE BERNAL LONDOÑO SJ - SEDE PRINCIPAL            5001
## 4   164491                                                      GIMN GUAYACANES            5001
## 5   164509                                COL FUNDADORES EN ADMINISTRACION (AC)            5001
## 6   168476                                      INST EDUC FEDERICO CARRASQUILLA            5001
## 7   168682                                      CENTRO DE ESTUDIOS MULTITÉCNICO            5001
## 8   168690                                      CENTRO DE ESTUDIOS MULTITÉCNICO            5001
## 9   169516                             I.E. MANUEL URIBE ÁNGEL - SEDE PRINCIPAL            5001
## 10  171249 I.E. COLEGIO LOYOLA PARA LA CIENCIA Y LA INNOVACIÓN - SEDE PRINCIPAL            5001
## # ... with 41 more rows, and 21 more variables: NOMBREMUNICIPIO <fctr>, DEPARTAMENTO <fctr>,
## #   CALENDARIO <fctr>, NATURALEZA <fctr>, JORNADA <fctr>, EVALUADOS <int>, PROMLECTURACRITICA <dbl>,
## #   PROMMATEMATICA <dbl>, PROMSOCIALESYCIUDADANAS <dbl>, PROMCIENCIASNATURALES <dbl>, PROMINGLES <dbl>,
## #   PROMRAZONAMIENTOCUANTITA <dbl>, PROMCOMPETENCIASCIUDADAN <dbl>, DESVLECTURACRITICA <dbl>,
## #   DESVMATEMATICA <dbl>, DESVSOCIALESYCIUDADANAS <dbl>, DESVCIENCIASNATURALES <dbl>, DESVINGLES <dbl>,
## #   DESVRAZONAMIENTOCUANTITA <dbl>, DESVCOMPETENCIASCIUDADAN <dbl>, PERIODO <int>
```

## Ordenación de la base de datos

```r
arrange(icfes201502, DEPARTAMENTO)
```

```
## # A tibble: 12,162 × 24
##    CODINST                                                                 NOMBREINSTITUCION CODIGOMUNICIPIO
##      <int>                                                                            <fctr>           <int>
## 1   142133                         I.E. INTERNADO SAN RAFAEL DEL CARAPARANA - SEDE PRINCIPAL           91263
## 2    87445                      I.E. COLEGIO INDIGENA CASA DEL CONOCIMIENTO - SEDE PRINCIPAL           91405
## 3   117127                                 I.E. INTERNADO INDIGENA SAN JOSÉ - SEDE PRINCIPAL           91407
## 4    19109 I.E. ESCUELA NORMAL SUPERIOR MARCELIANO EDUARDO CANYES SANTACANA - SEDE PRINCIPAL           91001
## 5    38919                                   I.E. INEM JOSE EUSTASIO RIVERA - SEDE PRINCIPAL           91001
## 6    65482                                     I.E. INDIGENA SAN JUAN BOSCO - SEDE PRINCIPAL           91001
## 7    65490                                                    COL FEMENINO MARIA AUXILIADORA           91001
## 8    87429                                                                    COL CRISTO REY           91001
## 9    93229           I.E. COLEGIO TECNICO AGROPECUARIO JOSE CELESTINO MUTIS - SEDE PRINCIPAL           91001
## 10  117358                                    I.E. SAGRADO CORAZON DE JESUS - SEDE PRINCIPAL           91001
## # ... with 12,152 more rows, and 21 more variables: NOMBREMUNICIPIO <fctr>, DEPARTAMENTO <fctr>,
## #   CALENDARIO <fctr>, NATURALEZA <fctr>, JORNADA <fctr>, EVALUADOS <int>, PROMLECTURACRITICA <dbl>,
## #   PROMMATEMATICA <dbl>, PROMSOCIALESYCIUDADANAS <dbl>, PROMCIENCIASNATURALES <dbl>, PROMINGLES <dbl>,
## #   PROMRAZONAMIENTOCUANTITA <dbl>, PROMCOMPETENCIASCIUDADAN <dbl>, DESVLECTURACRITICA <dbl>,
## #   DESVMATEMATICA <dbl>, DESVSOCIALESYCIUDADANAS <dbl>, DESVCIENCIASNATURALES <dbl>, DESVINGLES <dbl>,
## #   DESVRAZONAMIENTOCUANTITA <dbl>, DESVCOMPETENCIASCIUDADAN <dbl>, PERIODO <int>
```

```r
arrange(icfes201502, DEPARTAMENTO, NOMBREINSTITUCION)
```

```
## # A tibble: 12,162 × 24
##    CODINST                                                                 NOMBREINSTITUCION CODIGOMUNICIPIO
##      <int>                                                                            <fctr>           <int>
## 1    87429                                                                    COL CRISTO REY           91001
## 2    65490                                                    COL FEMENINO MARIA AUXILIADORA           91001
## 3   153510                                                  COL  NAVAL AF-41 ( ANTES JARDIN)           91001
## 4    87445                      I.E. COLEGIO INDIGENA CASA DEL CONOCIMIENTO - SEDE PRINCIPAL           91405
## 5    93229           I.E. COLEGIO TECNICO AGROPECUARIO JOSE CELESTINO MUTIS - SEDE PRINCIPAL           91001
## 6   104281                                        I.E. COLEGIO VILLA CARMEN - SEDE PRINCIPAL           91798
## 7    19109 I.E. ESCUELA NORMAL SUPERIOR MARCELIANO EDUARDO CANYES SANTACANA - SEDE PRINCIPAL           91001
## 8   173260 I.E. ESCUELA NORMAL SUPERIOR MARCELIANO EDUARDO CANYES SANTACANA - SEDE PRINCIPAL           91001
## 9   132506                                  I.E. FRANCISCO DEL ROSARIO VELA - SEDE PRINCIPAL           91001
## 10  135517                                       I.E. FRANCISCO DE ORELLANA - SEDE PRINCIPAL           91001
## # ... with 12,152 more rows, and 21 more variables: NOMBREMUNICIPIO <fctr>, DEPARTAMENTO <fctr>,
## #   CALENDARIO <fctr>, NATURALEZA <fctr>, JORNADA <fctr>, EVALUADOS <int>, PROMLECTURACRITICA <dbl>,
## #   PROMMATEMATICA <dbl>, PROMSOCIALESYCIUDADANAS <dbl>, PROMCIENCIASNATURALES <dbl>, PROMINGLES <dbl>,
## #   PROMRAZONAMIENTOCUANTITA <dbl>, PROMCOMPETENCIASCIUDADAN <dbl>, DESVLECTURACRITICA <dbl>,
## #   DESVMATEMATICA <dbl>, DESVSOCIALESYCIUDADANAS <dbl>, DESVCIENCIASNATURALES <dbl>, DESVINGLES <dbl>,
## #   DESVRAZONAMIENTOCUANTITA <dbl>, DESVCOMPETENCIASCIUDADAN <dbl>, PERIODO <int>
```

```r
arrange(icfes201502, PROMLECTURACRITICA)
```

```
## # A tibble: 12,162 × 24
##    CODINST                                  NOMBREINSTITUCION CODIGOMUNICIPIO         NOMBREMUNICIPIO
##      <int>                                             <fctr>           <int>                  <fctr>
## 1    77834                        CENT EDUC CAJASAN (ADULTOS)           68001             BUCARAMANGA
## 2   172783                                 C. E. R. CHAVERRAS            5756                  SONSON
## 3   196188         ESC RUR MIX MARIA AUXILIADORA DE ISLA MONO           27250 EL LITORAL DEL SAN JUAN
## 4    84368                  INST SER INTERNACIONAL, COMUNA 17           76001                    CALI
## 5   196931                 ESCOL RUR INDIG DE UNION CHOGORODO           27150       CARMEN DEL DARIEN
## 6   154450 COLEGIO DEPARTAMENTAL NACIONALIZADO ANTONIO NARIÑO           25483                  NARIÑO
## 7   135947                            INDIGENA MUREWON WAYURI           85125            HATO COROZAL
## 8   193466                                  LICEO DE ALTAMIRA            5093                 BETULIA
## 9   196907                                    SEDE DE LETICIA           13001               CARTAGENA
## 10  134494                             LICEO JOAQUIN F. VELEZ           13430                MAGANGUE
## # ... with 12,152 more rows, and 20 more variables: DEPARTAMENTO <fctr>, CALENDARIO <fctr>,
## #   NATURALEZA <fctr>, JORNADA <fctr>, EVALUADOS <int>, PROMLECTURACRITICA <dbl>, PROMMATEMATICA <dbl>,
## #   PROMSOCIALESYCIUDADANAS <dbl>, PROMCIENCIASNATURALES <dbl>, PROMINGLES <dbl>,
## #   PROMRAZONAMIENTOCUANTITA <dbl>, PROMCOMPETENCIASCIUDADAN <dbl>, DESVLECTURACRITICA <dbl>,
## #   DESVMATEMATICA <dbl>, DESVSOCIALESYCIUDADANAS <dbl>, DESVCIENCIASNATURALES <dbl>, DESVINGLES <dbl>,
## #   DESVRAZONAMIENTOCUANTITA <dbl>, DESVCOMPETENCIASCIUDADAN <dbl>, PERIODO <int>
```

```r
arrange(icfes201502, desc(PROMLECTURACRITICA))
```

```
## # A tibble: 12,162 × 24
##    CODINST                           NOMBREINSTITUCION CODIGOMUNICIPIO NOMBREMUNICIPIO    DEPARTAMENTO
##      <int>                                      <fctr>           <int>          <fctr>          <fctr>
## 1   180372                       COL LEONARDO DA VINCI           15690     SANTA MARIA          BOYACA
## 2    66845                         INST ALBERTO MERANI           11001     BOGOTÁ D.C.          BOGOTA
## 3   112078                      COL BILINGÜE LANCASTER           76001            CALI           VALLE
## 4    99002                             LIC CAMPO DAVID           11001     BOGOTÁ D.C.          BOGOTA
## 5    17806                   LICEO FRANCES PAUL VALERY           76001            CALI           VALLE
## 6    48298                         ASPAEN LICEO TACURÍ           76001            CALI           VALLE
## 7    75176                                COL EL PINAR           76001            CALI           VALLE
## 8   105742                             COLEGIO FREINET           76001            CALI           VALLE
## 9   125211 CAMBRIDGE SCHOOL (GIMN BILING PLAZA SESAMO)           54518        PAMPLONA NORTE SANTANDER
## 10   79806                 COL NUEVO COLOMBO AMERICANO           11001     BOGOTÁ D.C.          BOGOTA
## # ... with 12,152 more rows, and 19 more variables: CALENDARIO <fctr>, NATURALEZA <fctr>, JORNADA <fctr>,
## #   EVALUADOS <int>, PROMLECTURACRITICA <dbl>, PROMMATEMATICA <dbl>, PROMSOCIALESYCIUDADANAS <dbl>,
## #   PROMCIENCIASNATURALES <dbl>, PROMINGLES <dbl>, PROMRAZONAMIENTOCUANTITA <dbl>,
## #   PROMCOMPETENCIASCIUDADAN <dbl>, DESVLECTURACRITICA <dbl>, DESVMATEMATICA <dbl>,
## #   DESVSOCIALESYCIUDADANAS <dbl>, DESVCIENCIASNATURALES <dbl>, DESVINGLES <dbl>,
## #   DESVRAZONAMIENTOCUANTITA <dbl>, DESVCOMPETENCIASCIUDADAN <dbl>, PERIODO <int>
```

## Seleccion de columnas

```r
select(icfes201502, NOMBREMUNICIPIO, DEPARTAMENTO, PROMLECTURACRITICA)
```

```
## # A tibble: 12,162 × 3
##    NOMBREMUNICIPIO DEPARTAMENTO PROMLECTURACRITICA
##             <fctr>       <fctr>              <dbl>
## 1       EL ENCANTO     AMAZONAS              42.52
## 2      LA CHORRERA     AMAZONAS              40.13
## 3       LA PEDRERA     AMAZONAS              39.87
## 4          LETICIA     AMAZONAS              49.93
## 5          LETICIA     AMAZONAS              45.85
## 6          LETICIA     AMAZONAS              42.61
## 7          LETICIA     AMAZONAS              39.93
## 8          LETICIA     AMAZONAS              55.67
## 9          LETICIA     AMAZONAS              41.11
## 10         LETICIA     AMAZONAS              47.64
## # ... with 12,152 more rows
```

## Elementos o registros únicos

```r
distinct(select(icfes201502, DEPARTAMENTO))
```

```
## # A tibble: 33 × 1
##    DEPARTAMENTO
##          <fctr>
## 1      AMAZONAS
## 2     ANTIOQUIA
## 3        ARAUCA
## 4     ATLANTICO
## 5        BOGOTA
## 6       BOLIVAR
## 7        BOYACA
## 8        CALDAS
## 9       CAQUETA
## 10     CASANARE
## # ... with 23 more rows
```

## Adicionalr una nueva columna

```r
mutate(icfes201502, promTotal = (PROMLECTURACRITICA + PROMMATEMATICA + PROMINGLES)/3)
```

```
## # A tibble: 12,162 × 25
##    CODINST                                                                 NOMBREINSTITUCION CODIGOMUNICIPIO
##      <int>                                                                            <fctr>           <int>
## 1   142133                         I.E. INTERNADO SAN RAFAEL DEL CARAPARANA - SEDE PRINCIPAL           91263
## 2    87445                      I.E. COLEGIO INDIGENA CASA DEL CONOCIMIENTO - SEDE PRINCIPAL           91405
## 3   117127                                 I.E. INTERNADO INDIGENA SAN JOSÉ - SEDE PRINCIPAL           91407
## 4    19109 I.E. ESCUELA NORMAL SUPERIOR MARCELIANO EDUARDO CANYES SANTACANA - SEDE PRINCIPAL           91001
## 5    38919                                   I.E. INEM JOSE EUSTASIO RIVERA - SEDE PRINCIPAL           91001
## 6    65482                                     I.E. INDIGENA SAN JUAN BOSCO - SEDE PRINCIPAL           91001
## 7    65490                                                    COL FEMENINO MARIA AUXILIADORA           91001
## 8    87429                                                                    COL CRISTO REY           91001
## 9    93229           I.E. COLEGIO TECNICO AGROPECUARIO JOSE CELESTINO MUTIS - SEDE PRINCIPAL           91001
## 10  117358                                    I.E. SAGRADO CORAZON DE JESUS - SEDE PRINCIPAL           91001
## # ... with 12,152 more rows, and 22 more variables: NOMBREMUNICIPIO <fctr>, DEPARTAMENTO <fctr>,
## #   CALENDARIO <fctr>, NATURALEZA <fctr>, JORNADA <fctr>, EVALUADOS <int>, PROMLECTURACRITICA <dbl>,
## #   PROMMATEMATICA <dbl>, PROMSOCIALESYCIUDADANAS <dbl>, PROMCIENCIASNATURALES <dbl>, PROMINGLES <dbl>,
## #   PROMRAZONAMIENTOCUANTITA <dbl>, PROMCOMPETENCIASCIUDADAN <dbl>, DESVLECTURACRITICA <dbl>,
## #   DESVMATEMATICA <dbl>, DESVSOCIALESYCIUDADANAS <dbl>, DESVCIENCIASNATURALES <dbl>, DESVINGLES <dbl>,
## #   DESVRAZONAMIENTOCUANTITA <dbl>, DESVCOMPETENCIASCIUDADAN <dbl>, PERIODO <int>, promTotal <dbl>
```

```r
transmute(icfes201502, promTotal = (PROMLECTURACRITICA + PROMMATEMATICA + PROMINGLES)/3)
```

```
## # A tibble: 12,162 × 1
##    promTotal
##        <dbl>
## 1   43.50667
## 2   41.31667
## 3   41.04000
## 4   48.44667
## 5   45.47667
## 6   42.11333
## 7   41.81000
## 8   57.54000
## 9   40.58000
## 10  45.71667
## # ... with 12,152 more rows
```
…
```
## # A tibble: 1 × 1
##   `mean(PROMMATEMATICA)`
##                    <dbl>
## 1               48.79921
```

## Agrupación

```r
group_by(icfes201502, DEPARTAMENTO)
```

```
## Source: local data frame [12,162 x 24]
## Groups: DEPARTAMENTO [33]
## 
##    CODINST                                                                 NOMBREINSTITUCION CODIGOMUNICIPIO
##      <int>                                                                            <fctr>           <int>
## 1   142133                         I.E. INTERNADO SAN RAFAEL DEL CARAPARANA - SEDE PRINCIPAL           91263
## 2    87445                      I.E. COLEGIO INDIGENA CASA DEL CONOCIMIENTO - SEDE PRINCIPAL           91405
## 3   117127                                 I.E. INTERNADO INDIGENA SAN JOSÉ - SEDE PRINCIPAL           91407
## 4    19109 I.E. ESCUELA NORMAL SUPERIOR MARCELIANO EDUARDO CANYES SANTACANA - SEDE PRINCIPAL           91001
## 5    38919                                   I.E. INEM JOSE EUSTASIO RIVERA - SEDE PRINCIPAL           91001
## 6    65482                                     I.E. INDIGENA SAN JUAN BOSCO - SEDE PRINCIPAL           91001
## 7    65490                                                    COL FEMENINO MARIA AUXILIADORA           91001
## 8    87429                                                                    COL CRISTO REY           91001
## 9    93229           I.E. COLEGIO TECNICO AGROPECUARIO JOSE CELESTINO MUTIS - SEDE PRINCIPAL           91001
## 10  117358                                    I.E. SAGRADO CORAZON DE JESUS - SEDE PRINCIPAL           91001
## # ... with 12,152 more rows, and 21 more variables: NOMBREMUNICIPIO <fctr>, DEPARTAMENTO <fctr>,
## #   CALENDARIO <fctr>, NATURALEZA <fctr>, JORNADA <fctr>, EVALUADOS <int>, PROMLECTURACRITICA <dbl>,
## #   PROMMATEMATICA <dbl>, PROMSOCIALESYCIUDADANAS <dbl>, PROMCIENCIASNATURALES <dbl>, PROMINGLES <dbl>,
## #   PROMRAZONAMIENTOCUANTITA <dbl>, PROMCOMPETENCIASCIUDADAN <dbl>, DESVLECTURACRITICA <dbl>,
## #   DESVMATEMATICA <dbl>, DESVSOCIALESYCIUDADANAS <dbl>, DESVCIENCIASNATURALES <dbl>, DESVINGLES <dbl>,
## #   DESVRAZONAMIENTOCUANTITA <dbl>, DESVCOMPETENCIASCIUDADAN <dbl>, PERIODO <int>
```
…
