Análisis exploratorio de la oferta hídrica en Manizales
…
Combinación con los “verbos”.

oferta_hidrica1largo %>%
  select(AÑO, CUENCA, FUENTE, oferta) %>%
  mutate(log10Oferta = log10(oferta)) %>%
  group_by(AÑO, CUENCA, FUENTE) %>%
  summarise(promOferta = mean(oferta),
            promlog10Oferta = mean(log10Oferta)) %>%
  mutate(promOfertalog = 10^promlog10Oferta)

## # A tibble: 27 x 6
## # Groups:   AÑO, CUENCA [6]
##      AÑO CUENCA     FUENTE     promOferta promlog10Oferta promOfertalog
##    <int> <fct>      <fct>           <dbl>           <dbl>         <dbl>
##  1  2016 CHINCHINA  CAJONES         2809.            3.42         2633.
##  2  2016 CHINCHINA  CALIFORNIA      3415.            3.50         3140.
##  3  2016 CHINCHINA  CHINCHINA       9821.            3.96         9155.
##  4  2016 CHINCHINA  LA MARIA        1265.            3.05         1119.
##  5  2016 CHINCHINA  ROMERALES       3436.            3.48         3038.
##  6  2016 RIO BLANCO LA YE            835.            2.89          768.
##  7  2016 RIO BLANCO OLIVARES         284.            2.42          263.
##  8  2016 RIO BLANCO PINARES          940.            2.95          899.
##  9  2016 RIO BLANCO RIO BLANCO      3583.            3.51         3258.
## 10  2017 CHINCHINA  CAJONES         4553.            3.63         4269.
## # ... with 17 more rows
…
