Contaminación del aire en EEUU
…
spec_hora %>% group_by(Parameter.Name, State.Name) %>% summarise(prom = mean(Sample.Measurement))

## Source: local data frame [25 x 3]
## Groups: Parameter.Name [?]
## 
##                  Parameter.Name           State.Name      prom
##                          <fctr>               <fctr>     <dbl>
## 1           Ambient Temperature             Oklahoma 6.5261828
## 2  Black Carbon PM2.5 at 880 nm             Colorado 2.3827204
## 3  Black Carbon PM2.5 at 880 nm              Florida 0.5069865
## 4  Black Carbon PM2.5 at 880 nm             Missouri 0.6889883
## 5  Black Carbon PM2.5 at 880 nm       North Carolina 0.3927045
## 6  Black Carbon PM2.5 at 880 nm                 Ohio 1.7374983
## 7  Black Carbon PM2.5 at 880 nm                Texas 0.5150231
## 8  Black Carbon PM2.5 at 880 nm                 Utah 0.2902439
## 9           EC CSN PM2.5 LC TOT District Of Columbia 0.3607113
## 10          EC CSN PM2.5 LC TOT                Texas 0.8128303
## # ... with 15 more rows
…
