Contratación en Antioquia durante diciembre de 2017
…
¿Qué relación hay entre el sector del proyecto con el presupuesto del proyecto?

library(dplyr)
proy_sect <- contrata %>%
           group_by(SECTOR.DEL.PROYECTO) %>%
           summarize(VALOR.DEL.PROYECTO.TOTAL = sum(VALOR.DEL.PROYECTO)) %>%
           dplyr::arrange(desc(VALOR.DEL.PROYECTO.TOTAL)) %>%
           mutate(SECTOR.DEL.PROYECTO = 
                    factor(SECTOR.DEL.PROYECTO, levels = SECTOR.DEL.PROYECTO))

proy_sect

## # A tibble: 26 x 2
##    SECTOR.DEL.PROYECTO               VALOR.DEL.PROYECTO.TOTAL
##    <fct>                                                <dbl>
##  1 EDUCACIÓN                                 300713936077408.
##  2 TRANSPORTE                                 30083150633588.
##  3 GASTOS DE OPERACIÓN                        21217376560183.
##  4 SALUD                                      10946469648969.
##  5 PROMOCIÓN DEL DESARROLLO                    4263888761810.
##  6 GASTOS DE FUNCIONAMIENTO                    4151922085802.
##  7 GASTOS DE INVERSIÓN                         3693601325482.
##  8 FORTALECIMIENTO INSTITUCIONAL                940013246259.
##  9 RECREACIÓN Y DEPORTE                         679212115431.
## 10 AGUA POTABLE Y SANEAMIENTO BÁSICO            620332119831.
## # ... with 16 more rows
…
