Índice Sintético de Calidad Educativa, Medellín 2016, 2da parte
…
Desempeño de primaria y secundaria por comuna.

Mostrar en orden descendente el promedio de los promedios de ISCE de primaria y secundaria por comuna.

isce %>% 
  group_by(COMUNA, NOMBRE.COMUNA) %>% 
  summarise(promISCE.Primaria = mean(ISCE.Primaria, na.rm = TRUE),
            promISCE.Secundaria = mean(ISCE.Secundaria, na.rm = TRUE)) %>% 
  mutate(prom_Prim_Sec = (promISCE.Primaria + promISCE.Secundaria) / 2) %>% 
  arrange(desc(prom_Prim_Sec))

## # A tibble: 21 x 5
## # Groups:   COMUNA [21]
##    COMUNA NOMBRE.COMUNA       promISCE.Primaria promISCE.Secundaria prom_Prim_Sec
##    <fct>  <fct>                           <dbl>               <dbl>         <dbl>
##  1 14     " POBLADO"                       6.98                7.15          7.06
##  2 11     " LAURELES ESTADIO"              6.89                6.90          6.89
##  3 90     " SANTA ELENA"                   6.27                7.17          6.72
##  4 15     " GUAYABAL"                      6.53                5.82          6.18
##  5 10     " LA CANDELARIA"                 6.22                5.56          5.89
##  6 50     " PALMITAS"                      5.82                5.94          5.88
##  7 16     " BELEN"                         5.86                5.89          5.88
##  8 12     " LA AMERICA"                    5.60                5.91          5.76
##  9 9      " BUENOS AIRES"                  5.69                5.82          5.76
## 10 4      " ARANJUEZ"                      5.68                5.79          5.73
## # … with 11 more rows
…
