Salario mínimo en Colombia
…
Lectura de la base de datos.

library(readxl)
sm_IPC <- read_excel("salario_minimo_IPC_Colombia.xlsx")

Despliegue de la base de datos.

sm_IPC

## # A tibble: 35 x 5
##      año salario_mínimo Inflación diferencia diferencia_porcentual
##    <dbl>          <dbl>     <dbl>      <dbl>                 <dbl>
##  1  1984          11298      18.3         NA                  NA  
##  2  1985          13558      22.4       2260                  20.0
##  3  1986          16811      21.0       3253                  24.0
##  4  1987          20510      24.0       3699                  22.0
##  5  1988          25637      28.1       5127                  25.0
##  6  1989          32560      26.2       6923                  27.0
##  7  1990          41025      32.4       8465                  26.0
##  8  1991          51720      26.8      10695                  26.1
##  9  1992          65190      25.1      13470                  26.0
## 10  1993          81510      22.6      16320                  25.0
## # ... with 25 more rows
…
