Atencion en entidades de salud
…
Causa de consulta ms frecuente por sexo

library(dplyr)
salud_freq_cosulta_Ext2 <- salud %>%
  group_by(Causa_Externa, Sexo) %>%
  summarise(frecuencia = sum(Total_atenciones)) %>%
  arrange(desc(frecuencia))
salud_freq_cosulta_Ext2

## # A tibble: 30 x 3
## # Groups:   Causa_Externa [15]
##             Causa_Externa   Sexo frecuencia
##                    <fctr> <fctr>      <int>
##  1     Enfermedad general  Mujer    3760483
##  2     Enfermedad general Hombre    2197592
##  3                   Otra  Mujer     563035
##  4                   Otra Hombre     245083
##  5  Accidente de trnsito Hombre      54830
##  6  Accidente de trnsito  Mujer      28938
##  7   Accidente de trabajo Hombre      24139
##  8 Otro tipo de accidente Hombre      23510
##  9 Otro tipo de accidente  Mujer      22480
## 10   Accidente de trabajo  Mujer       8435
## # ... with 20 more rows
…
Distribucin porcentual de atenciones por causa externa dado el sexo.

library(dplyr)
salud_freq_cosulta_Ext2 <- salud_freq_cosulta_Ext2 %>%
  ungroup() %>%
  mutate(total = sum(frecuencia),
         porc = frecuencia/total * 100)
salud_freq_cosulta_Ext2

## # A tibble: 30 x 5
##             Causa_Externa   Sexo frecuencia   total       porc
##                    <fctr> <fctr>      <int>   <int>      <dbl>
##  1     Enfermedad general  Mujer    3760483 6964834 53.9924282
##  2     Enfermedad general Hombre    2197592 6964834 31.5526831
##  3                   Otra  Mujer     563035 6964834  8.0839687
##  4                   Otra Hombre     245083 6964834  3.5188635
##  5  Accidente de trnsito Hombre      54830 6964834  0.7872406
##  6  Accidente de trnsito  Mujer      28938 6964834  0.4154873
##  7   Accidente de trabajo Hombre      24139 6964834  0.3465840
##  8 Otro tipo de accidente Hombre      23510 6964834  0.3375529
##  9 Otro tipo de accidente  Mujer      22480 6964834  0.3227643
## 10   Accidente de trabajo  Mujer       8435 6964834  0.1211084
## # ... with 20 more rows

salud_freq_cosulta_Ext2 <- salud_freq_cosulta_Ext2 %>%
  group_by(Causa_Externa) %>%
  mutate(total_Causa_externa = sum(frecuencia),
         porc_Causa_externa = frecuencia/total_Causa_externa * 100)
salud_freq_cosulta_Ext2

## # A tibble: 30 x 7
## # Groups:   Causa_Externa [15]
##             Causa_Externa   Sexo frecuencia   total       porc total_Causa_externa
##                    <fctr> <fctr>      <int>   <int>      <dbl>               <int>
##  1     Enfermedad general  Mujer    3760483 6964834 53.9924282             5958075
##  2     Enfermedad general Hombre    2197592 6964834 31.5526831             5958075
##  3                   Otra  Mujer     563035 6964834  8.0839687              808118
##  4                   Otra Hombre     245083 6964834  3.5188635              808118
##  5  Accidente de trnsito Hombre      54830 6964834  0.7872406               83768
##  6  Accidente de trnsito  Mujer      28938 6964834  0.4154873               83768
##  7   Accidente de trabajo Hombre      24139 6964834  0.3465840               32574
##  8 Otro tipo de accidente Hombre      23510 6964834  0.3375529               45990
##  9 Otro tipo de accidente  Mujer      22480 6964834  0.3227643               45990
## 10   Accidente de trabajo  Mujer       8435 6964834  0.1211084               32574
## # ... with 20 more rows, and 1 more variables: porc_Causa_externa <dbl>

salud_freq_cosulta_Ext2 <- salud_freq_cosulta_Ext2 %>%
  group_by(Sexo) %>%
  mutate(total_Sexo = sum(frecuencia),
         porc_Sexo = frecuencia/total_Sexo * 100)
salud_freq_cosulta_Ext2

## # A tibble: 30 x 9
## # Groups:   Sexo [2]
##             Causa_Externa   Sexo frecuencia   total       porc total_Causa_externa
##                    <fctr> <fctr>      <int>   <int>      <dbl>               <int>
##  1     Enfermedad general  Mujer    3760483 6964834 53.9924282             5958075
##  2     Enfermedad general Hombre    2197592 6964834 31.5526831             5958075
##  3                   Otra  Mujer     563035 6964834  8.0839687              808118
##  4                   Otra Hombre     245083 6964834  3.5188635              808118
##  5  Accidente de trnsito Hombre      54830 6964834  0.7872406               83768
##  6  Accidente de trnsito  Mujer      28938 6964834  0.4154873               83768
##  7   Accidente de trabajo Hombre      24139 6964834  0.3465840               32574
##  8 Otro tipo de accidente Hombre      23510 6964834  0.3375529               45990
##  9 Otro tipo de accidente  Mujer      22480 6964834  0.3227643               45990
## 10   Accidente de trabajo  Mujer       8435 6964834  0.1211084               32574
## # ... with 20 more rows, and 3 more variables: porc_Causa_externa <dbl>, total_Sexo <int>,
## #   porc_Sexo <dbl>
…
